elicited-dag-analysis
…
`summarise()` has grouped output by 'node_type', 'node_group'. You can override
using the `.groups` argument.

Code

node_groups_table

# A tibble: 21 × 6
# Groups:   node_type, node_group [21]
   node_type       node_group    measurability          nodes         n pagerank
   <fct>           <chr>         <chr>                  <chr>     <dbl>    <dbl>
 1 Learning design LD            Traced                 Task des…    11     0.1 
 2 Help            H.AI.good     Some traced* (2 of 11) Help fro…    11     0.05
 3 Student         S.Act         Untraced               Student …    10     0.14
 4 Student         S.Kn          Untraced               Student …    10     0.12
 5 Student         S.Cp          Untraced               Student …     9     0.11
 6 Help            H.Tut         Untraced               Help (ge…     9     0.07
 7 Student         S.EM          Untraced               Student …     9     0.05
 8 Learning data   CD.LMS        Traced                 LMS acti…     8     0.07
 9 Assessment data Grade.Outcome Traced                 Assessme…     8    NA   
10 Assessment data Assessments   Traced                 Mark - E…     7     0.08
# ℹ 11 more rows
…
